EESchema Schematic File Version 4
LIBS:BRPanel-cache
EELAYER 26 0
EELAYER END
$Descr A4 11693 8268
encoding utf-8
Sheet 1 3
Title ""
Date ""
Rev ""
Comp ""
Comment1 ""
Comment2 ""
Comment3 ""
Comment4 ""
$EndDescr
$Comp
L Connector:Screw_Terminal_01x02 J2
U 1 1 5B1018D3
P 1950 1950
F 0 "J2" H 1870 1625 50  0000 C CNN
F 1 "AC IN" H 1870 1716 50  0000 C CNN
F 2 "" H 1950 1950 50  0001 C CNN
F 3 "~" H 1950 1950 50  0001 C CNN
	1    1950 1950
	-1   0    0    1   
$EndComp
$Comp
L Switch:SW_DPDT_x2 SW1
U 1 1 5B1019C6
P 4800 1850
F 0 "SW1" H 4800 1525 50  0000 C CNN
F 1 "SW_DPDT_x2" H 4800 1616 50  0000 C CNN
F 2 "" H 4800 1850 50  0001 C CNN
F 3 "" H 4800 1850 50  0001 C CNN
	1    4800 1850
	-1   0    0    1   
$EndComp
$Comp
L Switch:SW_DPDT_x2 SW1
U 2 1 5B101ADB
P 4800 2450
F 0 "SW1" H 4800 2125 50  0000 C CNN
F 1 "SW_DPDT_x2" H 4800 2216 50  0000 C CNN
F 2 "" H 4800 2450 50  0001 C CNN
F 3 "" H 4800 2450 50  0001 C CNN
	2    4800 2450
	-1   0    0    1   
$EndComp
$Comp
L Connector:DIN-3 J1
U 1 1 5B101F51
P 1850 2850
F 0 "J1" V 1896 2621 50  0000 R CNN
F 1 "DC IN" V 1805 2621 50  0000 R CNN
F 2 "" H 1850 2850 50  0001 C CNN
F 3 "http://www.mouser.com/ds/2/18/40_c091_abd_e-75918.pdf" H 1850 2850 50  0001 C CNN
	1    1850 2850
	0    -1   -1   0   
$EndComp
$Sheet
S 2200 1750 850  400 
U 5B1020E8
F0 "Lenovo PSU" 50
F1 "LenovoPSU.sch" 50
F2 "20V" I R 3050 1950 50 
F3 "GND" I R 3050 2050 50 
F4 "AC_IN1" I L 2200 1850 50 
F5 "AC_IN2" I L 2200 1950 50 
$EndSheet
$Sheet
S 3050 2650 850  300 
U 5B1020EF
F0 "DCDC" 50
F1 "DCDC.sch" 50
F2 "DCIN+" I L 3050 2750 50 
F3 "DCIN-" I L 3050 2850 50 
F4 "DCOUT+" I R 3900 2750 50 
F5 "DCOUT-" I R 3900 2850 50 
$EndSheet
Wire Wire Line
	2150 1850 2200 1850
Wire Wire Line
	3050 1950 3250 1950
Wire Wire Line
	3250 1950 3250 1750
Wire Wire Line
	3050 2050 3150 2050
Wire Wire Line
	3150 2050 3150 2350
Wire Wire Line
	3150 2350 3650 2350
Wire Wire Line
	2150 1950 2200 1950
Wire Wire Line
	3900 2750 4250 2750
Wire Wire Line
	4250 2750 4250 1950
Wire Wire Line
	3900 2850 4000 2850
Wire Wire Line
	4450 2850 4450 2550
Wire Wire Line
	4450 2550 4600 2550
$Comp
L Connector:Screw_Terminal_01x03 J3
U 1 1 5B102AB7
P 5900 2050
F 0 "J3" H 5980 2092 50  0000 L CNN
F 1 "AC IN" H 5980 2001 50  0000 L CNN
F 2 "" H 5900 2050 50  0001 C CNN
F 3 "~" H 5900 2050 50  0001 C CNN
	1    5900 2050
	1    0    0    -1  
$EndComp
Wire Wire Line
	5000 1850 5450 1850
Wire Wire Line
	5000 2450 5450 2450
Wire Wire Line
	5450 2450 5450 2150
Wire Wire Line
	5450 2150 5700 2150
Wire Wire Line
	5700 1950 5450 1950
Wire Wire Line
	5450 1950 5450 1850
Text Label 5200 1850 0    50   ~ 0
+20V
Text Label 5200 2450 0    50   ~ 0
GND
$Comp
L Device:D_ALT D1
U 1 1 5B104705
P 2500 2900
F 0 "D1" V 2454 2979 50  0000 L CNN
F 1 "30A" V 2545 2979 50  0000 L CNN
F 2 "" H 2500 2900 50  0001 C CNN
F 3 "~" H 2500 2900 50  0001 C CNN
	1    2500 2900
	0    1    1    0   
$EndComp
$Comp
L Device:Polyfuse F1
U 1 1 5B104834
P 2200 2550
F 0 "F1" V 1975 2550 50  0000 C CNN
F 1 "Polyfuse" V 2066 2550 50  0000 C CNN
F 2 "" H 2250 2350 50  0001 L CNN
F 3 "~" H 2200 2550 50  0001 C CNN
	1    2200 2550
	0    1    1    0   
$EndComp
Wire Wire Line
	2350 2750 2350 2550
Wire Wire Line
	2500 2750 2350 2750
Wire Wire Line
	2050 2550 1850 2550
Connection ~ 2500 2750
Wire Wire Line
	2500 2750 3050 2750
$Comp
L Device:LED_ALT D3
U 1 1 5B1060EC
P 4250 3200
F 0 "D3" V 4288 3083 50  0000 R CNN
F 1 "BLUE" V 4197 3083 50  0000 R CNN
F 2 "" H 4250 3200 50  0001 C CNN
F 3 "~" H 4250 3200 50  0001 C CNN
	1    4250 3200
	0    -1   -1   0   
$EndComp
$Comp
L Device:R R2
U 1 1 5B106192
P 4250 3550
F 0 "R2" H 4320 3596 50  0000 L CNN
F 1 "820" H 4320 3505 50  0000 L CNN
F 2 "" V 4180 3550 50  0001 C CNN
F 3 "~" H 4250 3550 50  0001 C CNN
	1    4250 3550
	1    0    0    -1  
$EndComp
Wire Wire Line
	3050 2850 2950 2850
Wire Wire Line
	2950 2850 2950 3150
Wire Wire Line
	2950 3150 2500 3150
Wire Wire Line
	2500 3050 2500 3150
Connection ~ 2500 3150
Wire Wire Line
	2500 3150 1850 3150
Wire Wire Line
	4250 3350 4250 3400
$Comp
L Device:LED_ALT D2
U 1 1 5B1075B8
P 3650 1900
F 0 "D2" V 3688 1783 50  0000 R CNN
F 1 "BLUE" V 3597 1783 50  0000 R CNN
F 2 "" H 3650 1900 50  0001 C CNN
F 3 "~" H 3650 1900 50  0001 C CNN
	1    3650 1900
	0    -1   -1   0   
$EndComp
$Comp
L Device:R R1
U 1 1 5B1075BF
P 3650 2200
F 0 "R1" H 3720 2246 50  0000 L CNN
F 1 "820" H 3720 2155 50  0000 L CNN
F 2 "" V 3580 2200 50  0001 C CNN
F 3 "~" H 3650 2200 50  0001 C CNN
	1    3650 2200
	1    0    0    -1  
$EndComp
$Comp
L Device:LED_ALT D4
U 1 1 5B107CED
P 6600 1850
F 0 "D4" V 6638 1732 50  0000 R CNN
F 1 "AMBER" V 6547 1732 50  0000 R CNN
F 2 "" H 6600 1850 50  0001 C CNN
F 3 "~" H 6600 1850 50  0001 C CNN
	1    6600 1850
	0    -1   -1   0   
$EndComp
$Comp
L Device:R R4
U 1 1 5B107CF4
P 6600 2250
F 0 "R4" H 6670 2296 50  0000 L CNN
F 1 "820" H 6670 2205 50  0000 L CNN
F 2 "" V 6530 2250 50  0001 C CNN
F 3 "~" H 6600 2250 50  0001 C CNN
	1    6600 2250
	1    0    0    -1  
$EndComp
Wire Wire Line
	6600 2000 6600 2100
Wire Wire Line
	4250 1950 4600 1950
Connection ~ 3650 2350
Wire Wire Line
	3650 2350 4600 2350
Wire Wire Line
	4250 2750 4250 3050
Connection ~ 4250 2750
Wire Wire Line
	4000 2850 4000 3700
Wire Wire Line
	4000 3700 4250 3700
Connection ~ 4000 2850
Wire Wire Line
	4000 2850 4450 2850
Wire Wire Line
	5700 2150 5700 2400
Wire Wire Line
	5700 2400 6600 2400
Connection ~ 5700 2150
Wire Wire Line
	6600 1700 6600 1650
Wire Wire Line
	6600 1650 5700 1650
Wire Wire Line
	5700 1650 5700 1950
Connection ~ 5700 1950
Wire Wire Line
	3250 1750 3650 1750
Connection ~ 3650 1750
Wire Wire Line
	3650 1750 4600 1750
Text Notes 5000 3550 0    50   ~ 0
Power/Resistor value\n45 W   120 Ω\n65 W   280 Ω\n90 W   550 Ω\n135 W  1 kΩ\n170 W  1.9 kΩ\n230 W  4.6 kΩ
Text Label 1850 2550 0    50   ~ 0
DC+
Text Label 1900 3150 0    50   ~ 0
DC-
NoConn ~ 5700 2050
NoConn ~ 4950 2700
NoConn ~ 4950 2750
$EndSCHEMATC
